ENV 790.30 - Time Series Analysis for Energy Data | Spring 2022
…
nobs=nrow(energy_data)
nvar=ncol(energy_data)

Q1

For this assignment you will work only with the following columns: Solar Energy Consumption and Wind Energy Consumption. Create a data frame structure with these two time series only and the Date column. Drop the rows with Not Available and convert the columns to numeric. You can use filtering to eliminate the initial rows or convert to numeric and then use the drop_na() function. If you are familiar with pipes for data wrangling, try using it!

raw_RE_data<-read_excel(path="./Data/Table_10.1_Renewable_Energy_Production_and_Consumption_by_Source.xlsx",skip=10)
raw_RE_data

## # A tibble: 586 x 14
##    Month               `Wood Energy Prod~ `Biofuels Product~ `Total Biomass Ene~
##    <dttm>              <chr>              <chr>              <chr>              
##  1 NA                  (Trillion Btu)     (Trillion Btu)     (Trillion Btu)     
##  2 1973-01-01 00:00:00 129.63             Not Available      129.787            
##  3 1973-02-01 00:00:00 117.194            Not Available      117.338            
##  4 1973-03-01 00:00:00 129.763            Not Available      129.938            
##  5 1973-04-01 00:00:00 125.462            Not Available      125.636            
##  6 1973-05-01 00:00:00 129.624            Not Available      129.834            
##  7 1973-06-01 00:00:00 125.435            Not Available      125.611            
##  8 1973-07-01 00:00:00 129.616            Not Available      129.787            
##  9 1973-08-01 00:00:00 129.734            Not Available      129.918            
## 10 1973-09-01 00:00:00 125.603            Not Available      125.782            
## # ... with 576 more rows, and 10 more variables:
## #   Total Renewable Energy Production <chr>,
## #   Hydroelectric Power Consumption <chr>, Geothermal Energy Consumption <chr>,
## #   Solar Energy Consumption <chr>, Wind Energy Consumption <chr>,
## #   Wood Energy Consumption <chr>, Waste Energy Consumption <chr>,
## #   Biofuels Consumption <chr>, Total Biomass Energy Consumption <chr>,
## #   Total Renewable Energy Consumption <chr>
…
